{
	"info": {
		"_postman_id": "b315b8ac-459f-4e02-9577-d4089c139c26",
		"name": "CollabCurry",
		"schema": "https://schema.getpostman.com/json/collection/v2.1.0/collection.json"
	},
	"item": [
		{
			"name": "api",
			"item": [
				{
					"name": "status_get",
					"request": {
						"method": "GET",
						"header": [],
						"url": {
							"raw": "http://{{flask_address}}:{{flask_port}}/api/v0/curri/version",
							"protocol": "http",
							"host": [
								"{{flask_address}}"
							],
							"port": "{{flask_port}}",
							"path": [
								"api",
								"v0",
								"curri",
								"version"
							]
						}
					},
					"response": []
				},
				{
					"name": "ruleset_get",
					"event": [
						{
							"listen": "test",
							"script": {
								"exec": [
									""
								],
								"type": "text/javascript"
							}
						}
					],
					"request": {
						"method": "GET",
						"header": [],
						"url": {
							"raw": "http://{{flask_address}}:{{flask_port}}/api/v0/curri/ruleset",
							"protocol": "http",
							"host": [
								"{{flask_address}}"
							],
							"port": "{{flask_port}}",
							"path": [
								"api",
								"v0",
								"curri",
								"ruleset"
							]
						}
					},
					"response": []
				}
			]
		},
		{
			"name": "ecc",
			"item": [
				{
					"name": "request_post",
					"request": {
						"method": "POST",
						"header": [],
						"body": {
							"mode": "raw",
							"raw": "<?xml version=\"1.0\" encoding=\"UTF-8\"?>\r\n    <Request xmlns=\"urn:oasis:names:tc:xacml:2.0:context:schema:os\">\r\n    <Subject SubjectCategory=\"urn:oasis:names:tc:xacml:1.0:subject-category:access-subject\">\r\n        <Attribute AttributeId=\"urn:oasis:names:tc:xacml:1.0:subject:role-id\" DataType=\"http://www.w3.org/2001/XMLSchema#string\" Issuer=\"requestor\">\r\n            <AttributeValue>CISCO:UC:UCMPolicy</AttributeValue>\r\n        </Attribute>\r\n        <Attribute AttributeId=\"urn:Cisco:uc:1.0:callingnumber\" DataType=\"http://www.w3.org/2001/XMLSchema#string\">\r\n            <AttributeValue>+4422868880</AttributeValue>\r\n        </Attribute>\r\n        <Attribute AttributeId=\"urn:Cisco:uc:1.0:callednumber\" DataType=\"http://www.w3.org/2001/XMLSchema#string\">\r\n            <AttributeValue>7100</AttributeValue>\r\n        </Attribute>\r\n        <Attribute AttributeId=\"urn:Cisco:uc:1.0:transformedcgpn\" DataType=\"http://www.w3.org/2001/XMLSchema#string\">\r\n            <AttributeValue>+19725550101</AttributeValue>\r\n        </Attribute>\r\n        <Attribute AttributeId=\"urn:Cisco:uc:1.0:transformedcdpn\" DataType=\"http://www.w3.org/2001/XMLSchema#string\">\r\n            <AttributeValue>+19725550102</AttributeValue>\r\n        </Attribute>\r\n    </Subject>\r\n    <Resource>\r\n        <Attribute AttributeId=\"urn:oasis:names:tc:xacml:1.0:resource:resource-id\" DataType=\"http://www.w3.org/2001/XMLSchema#anyURI\">\r\n            <AttributeValue>CISCO:UC:VoiceOrVideoCall</AttributeValue>\r\n        </Attribute>\r\n    </Resource>\r\n    <Action>\r\n        <Attribute AttributeId=\"urn:oasis:names:tc:xacml:1.0:action:action-id\" DataType=\"http://www.w3.org/2001/XMLSchema#anyURI\">\r\n            <AttributeValue>any</AttributeValue>\r\n        </Attribute>\r\n    </Action>\r\n    <Environment>\r\n        <Attribute AttributeId=\"urn:Cisco:uc:1.0:triggerpointtype\" DataType=\"http://www.w3.org/2001/XMLSchema#string\">\r\n            <AttributeValue>translationpattern</AttributeValue>\r\n        </Attribute>\r\n    </Environment>\r\n    </Request>",
							"options": {
								"raw": {
									"language": "xml"
								}
							}
						},
						"url": {
							"raw": "http://{{flask_address}}:{{flask_port}}/ecc/request",
							"protocol": "http",
							"host": [
								"{{flask_address}}"
							],
							"port": "{{flask_port}}",
							"path": [
								"ecc",
								"request"
							]
						}
					},
					"response": []
				}
			]
		},
		{
			"name": "Tests",
			"item": [
				{
					"name": "Test_Permit",
					"request": {
						"method": "POST",
						"header": [
							{
								"key": "Content-Type",
								"name": "Content-Type",
								"type": "text",
								"value": "application/xml"
							}
						],
						"body": {
							"mode": "raw",
							"raw": "<?xml version=\"1.0\" encoding=\"UTF-8\"?>\r\n    <Request xmlns=\"urn:oasis:names:tc:xacml:2.0:context:schema:os\">\r\n    <Subject SubjectCategory=\"urn:oasis:names:tc:xacml:1.0:subject-category:access-subject\">\r\n        <Attribute AttributeId=\"urn:oasis:names:tc:xacml:1.0:subject:role-id\" DataType=\"http://www.w3.org/2001/XMLSchema#string\" Issuer=\"requestor\">\r\n            <AttributeValue>CISCO:UC:UCMPolicy</AttributeValue>\r\n        </Attribute>\r\n        <Attribute AttributeId=\"urn:Cisco:uc:1.0:callingnumber\" DataType=\"http://www.w3.org/2001/XMLSchema#string\">\r\n            <AttributeValue>+4422868880</AttributeValue>\r\n        </Attribute>\r\n        <Attribute AttributeId=\"urn:Cisco:uc:1.0:callednumber\" DataType=\"http://www.w3.org/2001/XMLSchema#string\">\r\n            <AttributeValue>7100</AttributeValue>\r\n        </Attribute>\r\n        <Attribute AttributeId=\"urn:Cisco:uc:1.0:transformedcgpn\" DataType=\"http://www.w3.org/2001/XMLSchema#string\">\r\n            <AttributeValue>+4422868880</AttributeValue>\r\n        </Attribute>\r\n        <Attribute AttributeId=\"urn:Cisco:uc:1.0:transformedcdpn\" DataType=\"http://www.w3.org/2001/XMLSchema#string\">\r\n            <AttributeValue>7100</AttributeValue>\r\n        </Attribute>\r\n    </Subject>\r\n    <Resource>\r\n        <Attribute AttributeId=\"urn:oasis:names:tc:xacml:1.0:resource:resource-id\" DataType=\"http://www.w3.org/2001/XMLSchema#anyURI\">\r\n            <AttributeValue>CISCO:UC:VoiceOrVideoCall</AttributeValue>\r\n        </Attribute>\r\n    </Resource>\r\n    <Action>\r\n        <Attribute AttributeId=\"urn:oasis:names:tc:xacml:1.0:action:action-id\" DataType=\"http://www.w3.org/2001/XMLSchema#anyURI\">\r\n            <AttributeValue>any</AttributeValue>\r\n        </Attribute>\r\n    </Action>\r\n    <Environment>\r\n        <Attribute AttributeId=\"urn:Cisco:uc:1.0:triggerpointtype\" DataType=\"http://www.w3.org/2001/XMLSchema#string\">\r\n            <AttributeValue>translationpattern</AttributeValue>\r\n        </Attribute>\r\n    </Environment>\r\n    </Request>",
							"options": {
								"raw": {
									"language": "xml"
								}
							}
						},
						"url": {
							"raw": "http://{{flask_address}}:{{flask_port}}/ecc/request",
							"protocol": "http",
							"host": [
								"{{flask_address}}"
							],
							"port": "{{flask_port}}",
							"path": [
								"ecc",
								"request"
							]
						}
					},
					"response": []
				},
				{
					"name": "Test_Divert",
					"request": {
						"method": "POST",
						"header": [
							{
								"key": "Content-Type",
								"name": "Content-Type",
								"type": "text",
								"value": "application/xml"
							}
						],
						"body": {
							"mode": "raw",
							"raw": "<?xml version=\"1.0\" encoding=\"UTF-8\"?>\r\n    <Request xmlns=\"urn:oasis:names:tc:xacml:2.0:context:schema:os\">\r\n    <Subject SubjectCategory=\"urn:oasis:names:tc:xacml:1.0:subject-category:access-subject\">\r\n        <Attribute AttributeId=\"urn:oasis:names:tc:xacml:1.0:subject:role-id\" DataType=\"http://www.w3.org/2001/XMLSchema#string\" Issuer=\"requestor\">\r\n            <AttributeValue>CISCO:UC:UCMPolicy</AttributeValue>\r\n        </Attribute>\r\n        <Attribute AttributeId=\"urn:Cisco:uc:1.0:callingnumber\" DataType=\"http://www.w3.org/2001/XMLSchema#string\">\r\n            <AttributeValue>+49123456789</AttributeValue>\r\n        </Attribute>\r\n        <Attribute AttributeId=\"urn:Cisco:uc:1.0:callednumber\" DataType=\"http://www.w3.org/2001/XMLSchema#string\">\r\n            <AttributeValue>3124</AttributeValue>\r\n        </Attribute>\r\n        <Attribute AttributeId=\"urn:Cisco:uc:1.0:transformedcgpn\" DataType=\"http://www.w3.org/2001/XMLSchema#string\">\r\n            <AttributeValue>+49123456789</AttributeValue>\r\n        </Attribute>\r\n        <Attribute AttributeId=\"urn:Cisco:uc:1.0:transformedcdpn\" DataType=\"http://www.w3.org/2001/XMLSchema#string\">\r\n            <AttributeValue>3124</AttributeValue>\r\n        </Attribute>\r\n    </Subject>\r\n    <Resource>\r\n        <Attribute AttributeId=\"urn:oasis:names:tc:xacml:1.0:resource:resource-id\" DataType=\"http://www.w3.org/2001/XMLSchema#anyURI\">\r\n            <AttributeValue>CISCO:UC:VoiceOrVideoCall</AttributeValue>\r\n        </Attribute>\r\n    </Resource>\r\n    <Action>\r\n        <Attribute AttributeId=\"urn:oasis:names:tc:xacml:1.0:action:action-id\" DataType=\"http://www.w3.org/2001/XMLSchema#anyURI\">\r\n            <AttributeValue>any</AttributeValue>\r\n        </Attribute>\r\n    </Action>\r\n    <Environment>\r\n        <Attribute AttributeId=\"urn:Cisco:uc:1.0:triggerpointtype\" DataType=\"http://www.w3.org/2001/XMLSchema#string\">\r\n            <AttributeValue>translationpattern</AttributeValue>\r\n        </Attribute>\r\n    </Environment>\r\n    </Request>",
							"options": {
								"raw": {
									"language": "xml"
								}
							}
						},
						"url": {
							"raw": "http://{{flask_address}}:{{flask_port}}/ecc/request",
							"protocol": "http",
							"host": [
								"{{flask_address}}"
							],
							"port": "{{flask_port}}",
							"path": [
								"ecc",
								"request"
							]
						}
					},
					"response": []
				},
				{
					"name": "Test_NoDirectives",
					"request": {
						"method": "POST",
						"header": [
							{
								"key": "Content-Type",
								"name": "Content-Type",
								"type": "text",
								"value": "application/xml"
							}
						],
						"body": {
							"mode": "raw",
							"raw": "<?xml version=\"1.0\" encoding=\"UTF-8\"?>\r\n    <Request xmlns=\"urn:oasis:names:tc:xacml:2.0:context:schema:os\">\r\n    <Subject SubjectCategory=\"urn:oasis:names:tc:xacml:1.0:subject-category:access-subject\">\r\n        <Attribute AttributeId=\"urn:oasis:names:tc:xacml:1.0:subject:role-id\" DataType=\"http://www.w3.org/2001/XMLSchema#string\" Issuer=\"requestor\">\r\n            <AttributeValue>CISCO:UC:UCMPolicy</AttributeValue>\r\n        </Attribute>\r\n        <Attribute AttributeId=\"urn:Cisco:uc:1.0:callingnumber\" DataType=\"http://www.w3.org/2001/XMLSchema#string\">\r\n            <AttributeValue>+4422868880</AttributeValue>\r\n        </Attribute>\r\n        <Attribute AttributeId=\"urn:Cisco:uc:1.0:callednumber\" DataType=\"http://www.w3.org/2001/XMLSchema#string\">\r\n            <AttributeValue>7200</AttributeValue>\r\n        </Attribute>\r\n        <Attribute AttributeId=\"urn:Cisco:uc:1.0:transformedcgpn\" DataType=\"http://www.w3.org/2001/XMLSchema#string\">\r\n            <AttributeValue>+19725550101</AttributeValue>\r\n        </Attribute>\r\n        <Attribute AttributeId=\"urn:Cisco:uc:1.0:transformedcdpn\" DataType=\"http://www.w3.org/2001/XMLSchema#string\">\r\n            <AttributeValue>+19725550102</AttributeValue>\r\n        </Attribute>\r\n    </Subject>\r\n    <Resource>\r\n        <Attribute AttributeId=\"urn:oasis:names:tc:xacml:1.0:resource:resource-id\" DataType=\"http://www.w3.org/2001/XMLSchema#anyURI\">\r\n            <AttributeValue>CISCO:UC:VoiceOrVideoCall</AttributeValue>\r\n        </Attribute>\r\n    </Resource>\r\n    <Action>\r\n        <Attribute AttributeId=\"urn:oasis:names:tc:xacml:1.0:action:action-id\" DataType=\"http://www.w3.org/2001/XMLSchema#anyURI\">\r\n            <AttributeValue>any</AttributeValue>\r\n        </Attribute>\r\n    </Action>\r\n    <Environment>\r\n        <Attribute AttributeId=\"urn:Cisco:uc:1.0:triggerpointtype\" DataType=\"http://www.w3.org/2001/XMLSchema#string\">\r\n            <AttributeValue>translationpattern</AttributeValue>\r\n        </Attribute>\r\n    </Environment>\r\n    </Request>",
							"options": {
								"raw": {
									"language": "xml"
								}
							}
						},
						"url": {
							"raw": "http://{{flask_address}}:{{flask_port}}/ecc/request",
							"protocol": "http",
							"host": [
								"{{flask_address}}"
							],
							"port": "{{flask_port}}",
							"path": [
								"ecc",
								"request"
							]
						}
					},
					"response": []
				},
				{
					"name": "Test_Reject",
					"request": {
						"method": "POST",
						"header": [
							{
								"key": "Content-Type",
								"name": "Content-Type",
								"type": "text",
								"value": "application/xml"
							}
						],
						"body": {
							"mode": "raw",
							"raw": "<?xml version=\"1.0\" encoding=\"UTF-8\"?>\r\n    <Request xmlns=\"urn:oasis:names:tc:xacml:2.0:context:schema:os\">\r\n    <Subject SubjectCategory=\"urn:oasis:names:tc:xacml:1.0:subject-category:access-subject\">\r\n        <Attribute AttributeId=\"urn:oasis:names:tc:xacml:1.0:subject:role-id\" DataType=\"http://www.w3.org/2001/XMLSchema#string\" Issuer=\"requestor\">\r\n            <AttributeValue>CISCO:UC:UCMPolicy</AttributeValue>\r\n        </Attribute>\r\n        <Attribute AttributeId=\"urn:Cisco:uc:1.0:callingnumber\" DataType=\"http://www.w3.org/2001/XMLSchema#string\">\r\n            <AttributeValue>+3322868883408</AttributeValue>\r\n        </Attribute>\r\n        <Attribute AttributeId=\"urn:Cisco:uc:1.0:callednumber\" DataType=\"http://www.w3.org/2001/XMLSchema#string\">\r\n            <AttributeValue>7404</AttributeValue>\r\n        </Attribute>\r\n        <Attribute AttributeId=\"urn:Cisco:uc:1.0:transformedcgpn\" DataType=\"http://www.w3.org/2001/XMLSchema#string\">\r\n            <AttributeValue>+3322868883408</AttributeValue>\r\n        </Attribute>\r\n        <Attribute AttributeId=\"urn:Cisco:uc:1.0:transformedcdpn\" DataType=\"http://www.w3.org/2001/XMLSchema#string\">\r\n            <AttributeValue>7404</AttributeValue>\r\n        </Attribute>\r\n    </Subject>\r\n    <Resource>\r\n        <Attribute AttributeId=\"urn:oasis:names:tc:xacml:1.0:resource:resource-id\" DataType=\"http://www.w3.org/2001/XMLSchema#anyURI\">\r\n            <AttributeValue>CISCO:UC:VoiceOrVideoCall</AttributeValue>\r\n        </Attribute>\r\n    </Resource>\r\n    <Action>\r\n        <Attribute AttributeId=\"urn:oasis:names:tc:xacml:1.0:action:action-id\" DataType=\"http://www.w3.org/2001/XMLSchema#anyURI\">\r\n            <AttributeValue>any</AttributeValue>\r\n        </Attribute>\r\n    </Action>\r\n    <Environment>\r\n        <Attribute AttributeId=\"urn:Cisco:uc:1.0:triggerpointtype\" DataType=\"http://www.w3.org/2001/XMLSchema#string\">\r\n            <AttributeValue>translationpattern</AttributeValue>\r\n        </Attribute>\r\n    </Environment>\r\n    </Request>",
							"options": {
								"raw": {
									"language": "xml"
								}
							}
						},
						"url": {
							"raw": "http://{{flask_address}}:{{flask_port}}/ecc/request",
							"protocol": "http",
							"host": [
								"{{flask_address}}"
							],
							"port": "{{flask_port}}",
							"path": [
								"ecc",
								"request"
							]
						}
					},
					"response": []
				},
				{
					"name": "Test_LDAP",
					"event": [
						{
							"listen": "test",
							"script": {
								"exec": [
									""
								],
								"type": "text/javascript"
							}
						}
					],
					"request": {
						"method": "POST",
						"header": [
							{
								"key": "Content-Type",
								"name": "Content-Type",
								"type": "text",
								"value": "application/xml"
							}
						],
						"body": {
							"mode": "raw",
							"raw": "<?xml version=\"1.0\" encoding=\"UTF-8\"?>\r\n    <Request xmlns=\"urn:oasis:names:tc:xacml:2.0:context:schema:os\">\r\n    <Subject SubjectCategory=\"urn:oasis:names:tc:xacml:1.0:subject-category:access-subject\">\r\n        <Attribute AttributeId=\"urn:oasis:names:tc:xacml:1.0:subject:role-id\" DataType=\"http://www.w3.org/2001/XMLSchema#string\" Issuer=\"requestor\">\r\n            <AttributeValue>CISCO:UC:UCMPolicy</AttributeValue>\r\n        </Attribute>\r\n        <Attribute AttributeId=\"urn:Cisco:uc:1.0:callingnumber\" DataType=\"http://www.w3.org/2001/XMLSchema#string\">\r\n            <AttributeValue>1001</AttributeValue>\r\n        </Attribute>\r\n        <Attribute AttributeId=\"urn:Cisco:uc:1.0:callednumber\" DataType=\"http://www.w3.org/2001/XMLSchema#string\">\r\n            <AttributeValue>+4987654321</AttributeValue>\r\n        </Attribute>\r\n        <Attribute AttributeId=\"urn:Cisco:uc:1.0:transformedcgpn\" DataType=\"http://www.w3.org/2001/XMLSchema#string\">\r\n            <AttributeValue>1001</AttributeValue>\r\n        </Attribute>\r\n        <Attribute AttributeId=\"urn:Cisco:uc:1.0:transformedcdpn\" DataType=\"http://www.w3.org/2001/XMLSchema#string\">\r\n            <AttributeValue>+4987654321</AttributeValue>\r\n        </Attribute>\r\n    </Subject>\r\n    <Resource>\r\n        <Attribute AttributeId=\"urn:oasis:names:tc:xacml:1.0:resource:resource-id\" DataType=\"http://www.w3.org/2001/XMLSchema#anyURI\">\r\n            <AttributeValue>CISCO:UC:VoiceOrVideoCall</AttributeValue>\r\n        </Attribute>\r\n    </Resource>\r\n    <Action>\r\n        <Attribute AttributeId=\"urn:oasis:names:tc:xacml:1.0:action:action-id\" DataType=\"http://www.w3.org/2001/XMLSchema#anyURI\">\r\n            <AttributeValue>any</AttributeValue>\r\n        </Attribute>\r\n    </Action>\r\n    <Environment>\r\n        <Attribute AttributeId=\"urn:Cisco:uc:1.0:triggerpointtype\" DataType=\"http://www.w3.org/2001/XMLSchema#string\">\r\n            <AttributeValue>translationpattern</AttributeValue>\r\n        </Attribute>\r\n    </Environment>\r\n    </Request>",
							"options": {
								"raw": {
									"language": "xml"
								}
							}
						},
						"url": {
							"raw": "http://{{flask_address}}:{{flask_port}}/ecc/request",
							"protocol": "http",
							"host": [
								"{{flask_address}}"
							],
							"port": "{{flask_port}}",
							"path": [
								"ecc",
								"request"
							]
						}
					},
					"response": []
				},
				{
					"name": "Test_UCCX-toCTIPort",
					"event": [
						{
							"listen": "test",
							"script": {
								"exec": [
									""
								],
								"type": "text/javascript"
							}
						}
					],
					"request": {
						"method": "POST",
						"header": [
							{
								"key": "Content-Type",
								"name": "Content-Type",
								"type": "text",
								"value": "application/xml"
							}
						],
						"body": {
							"mode": "raw",
							"raw": "<?xml version=\"1.0\" encoding=\"UTF-8\"?>\r\n    <Request xmlns=\"urn:oasis:names:tc:xacml:2.0:context:schema:os\">\r\n    <Subject SubjectCategory=\"urn:oasis:names:tc:xacml:1.0:subject-category:access-subject\">\r\n        <Attribute AttributeId=\"urn:oasis:names:tc:xacml:1.0:subject:role-id\" DataType=\"http://www.w3.org/2001/XMLSchema#string\" Issuer=\"requestor\">\r\n            <AttributeValue>CISCO:UC:UCMPolicy</AttributeValue>\r\n        </Attribute>\r\n        <Attribute AttributeId=\"urn:Cisco:uc:1.0:callingnumber\" DataType=\"http://www.w3.org/2001/XMLSchema#string\">\r\n            <AttributeValue>+1987654321</AttributeValue>\r\n        </Attribute>\r\n        <Attribute AttributeId=\"urn:Cisco:uc:1.0:callednumber\" DataType=\"http://www.w3.org/2001/XMLSchema#string\">\r\n            <AttributeValue>9123</AttributeValue>\r\n        </Attribute>\r\n        <Attribute AttributeId=\"urn:Cisco:uc:1.0:transformedcgpn\" DataType=\"http://www.w3.org/2001/XMLSchema#string\">\r\n            <AttributeValue>+1987654321</AttributeValue>\r\n        </Attribute>\r\n        <Attribute AttributeId=\"urn:Cisco:uc:1.0:transformedcdpn\" DataType=\"http://www.w3.org/2001/XMLSchema#string\">\r\n            <AttributeValue>9123</AttributeValue>\r\n        </Attribute>\r\n    </Subject>\r\n    <Resource>\r\n        <Attribute AttributeId=\"urn:oasis:names:tc:xacml:1.0:resource:resource-id\" DataType=\"http://www.w3.org/2001/XMLSchema#anyURI\">\r\n            <AttributeValue>CISCO:UC:VoiceOrVideoCall</AttributeValue>\r\n        </Attribute>\r\n    </Resource>\r\n    <Action>\r\n        <Attribute AttributeId=\"urn:oasis:names:tc:xacml:1.0:action:action-id\" DataType=\"http://www.w3.org/2001/XMLSchema#anyURI\">\r\n            <AttributeValue>any</AttributeValue>\r\n        </Attribute>\r\n    </Action>\r\n    <Environment>\r\n        <Attribute AttributeId=\"urn:Cisco:uc:1.0:triggerpointtype\" DataType=\"http://www.w3.org/2001/XMLSchema#string\">\r\n            <AttributeValue>translationpattern</AttributeValue>\r\n        </Attribute>\r\n    </Environment>\r\n    </Request>",
							"options": {
								"raw": {
									"language": "xml"
								}
							}
						},
						"url": {
							"raw": "http://{{flask_address}}:{{flask_port}}/ecc/request",
							"protocol": "http",
							"host": [
								"{{flask_address}}"
							],
							"port": "{{flask_port}}",
							"path": [
								"ecc",
								"request"
							]
						}
					},
					"response": []
				},
				{
					"name": "Test_UCCX-toAgent",
					"event": [
						{
							"listen": "test",
							"script": {
								"exec": [
									""
								],
								"type": "text/javascript"
							}
						}
					],
					"request": {
						"method": "POST",
						"header": [
							{
								"key": "Content-Type",
								"name": "Content-Type",
								"type": "text",
								"value": "application/xml"
							}
						],
						"body": {
							"mode": "raw",
							"raw": "<?xml version=\"1.0\" encoding=\"UTF-8\"?>\r\n    <Request xmlns=\"urn:oasis:names:tc:xacml:2.0:context:schema:os\">\r\n    <Subject SubjectCategory=\"urn:oasis:names:tc:xacml:1.0:subject-category:access-subject\">\r\n        <Attribute AttributeId=\"urn:oasis:names:tc:xacml:1.0:subject:role-id\" DataType=\"http://www.w3.org/2001/XMLSchema#string\" Issuer=\"requestor\">\r\n            <AttributeValue>CISCO:UC:UCMPolicy</AttributeValue>\r\n        </Attribute>\r\n        <Attribute AttributeId=\"urn:Cisco:uc:1.0:callingnumber\" DataType=\"http://www.w3.org/2001/XMLSchema#string\">\r\n            <AttributeValue>9123</AttributeValue>\r\n        </Attribute>\r\n        <Attribute AttributeId=\"urn:Cisco:uc:1.0:callednumber\" DataType=\"http://www.w3.org/2001/XMLSchema#string\">\r\n            <AttributeValue>1987</AttributeValue>\r\n        </Attribute>\r\n        <Attribute AttributeId=\"urn:Cisco:uc:1.0:transformedcgpn\" DataType=\"http://www.w3.org/2001/XMLSchema#string\">\r\n            <AttributeValue>9123</AttributeValue>\r\n        </Attribute>\r\n        <Attribute AttributeId=\"urn:Cisco:uc:1.0:transformedcdpn\" DataType=\"http://www.w3.org/2001/XMLSchema#string\">\r\n            <AttributeValue>1987</AttributeValue>\r\n        </Attribute>\r\n    </Subject>\r\n    <Resource>\r\n        <Attribute AttributeId=\"urn:oasis:names:tc:xacml:1.0:resource:resource-id\" DataType=\"http://www.w3.org/2001/XMLSchema#anyURI\">\r\n            <AttributeValue>CISCO:UC:VoiceOrVideoCall</AttributeValue>\r\n        </Attribute>\r\n    </Resource>\r\n    <Action>\r\n        <Attribute AttributeId=\"urn:oasis:names:tc:xacml:1.0:action:action-id\" DataType=\"http://www.w3.org/2001/XMLSchema#anyURI\">\r\n            <AttributeValue>any</AttributeValue>\r\n        </Attribute>\r\n    </Action>\r\n    <Environment>\r\n        <Attribute AttributeId=\"urn:Cisco:uc:1.0:triggerpointtype\" DataType=\"http://www.w3.org/2001/XMLSchema#string\">\r\n            <AttributeValue>translationpattern</AttributeValue>\r\n        </Attribute>\r\n    </Environment>\r\n    </Request>",
							"options": {
								"raw": {
									"language": "xml"
								}
							}
						},
						"url": {
							"raw": "http://{{flask_address}}:{{flask_port}}/ecc/request",
							"protocol": "http",
							"host": [
								"{{flask_address}}"
							],
							"port": "{{flask_port}}",
							"path": [
								"ecc",
								"request"
							]
						}
					},
					"response": []
				},
				{
					"name": "Test_Error",
					"request": {
						"method": "POST",
						"header": [
							{
								"key": "Content-Type",
								"name": "Content-Type",
								"type": "text",
								"value": "application/xml"
							}
						],
						"body": {
							"mode": "raw",
							"raw": "<?xml version=\"1.0\" encoding=\"UTF-8\"?>\r\n    <Request xmlns=\"urn:oasis:names:tc:xacml:2.0:context:schema:os\">\r\n    <Subject SubjectCategory=\"urn:oasis:names:tc:xacml:1.0:subject-category:access-subject\">\r\n        <Attribute AttributeId=\"urn:oasis:names:tc:xacml:1.0:subject:role-id\" DataType=\"http://www.w3.org/2001/XMLSchema#string\" Issuer=\"requestor\">\r\n            <AttributeValue>CISCO:UC:UCMPolicy</AttributeValue>\r\n        </Attribute>\r\n        <Attribute AttributeId=\"urn:Cisco:uc:1.0:callingnumber\" DataType=\"http://www.w3.org/2001/XMLSchema#string\">\r\n            <AttributeValue>+3322868883408</AttributeValue>\r\n        </Attribute>\r\n        <Attribute AttributeId=\"urn:Cisco:uc:1.0:callednumber\" DataType=\"http://www.w3.org/2001/XMLSchema#string\">\r\n            <AttributeValue>6789</AttributeValue>\r\n        </Attribute>\r\n        <Attribute AttributeId=\"urn:Cisco:uc:1.0:transformedcgpn\" DataType=\"http://www.w3.org/2001/XMLSchema#string\">\r\n            <AttributeValue>+19725550101</AttributeValue>\r\n        </Attribute>\r\n        <Attribute AttributeId=\"urn:Cisco:uc:1.0:transformedcdpn\" DataType=\"http://www.w3.org/2001/XMLSchema#string\">\r\n            <AttributeValue>6789</AttributeValue>\r\n        </Attribute>\r\n    </Subject>\r\n    <Resource>\r\n        <Attribute AttributeId=\"urn:oasis:names:tc:xacml:1.0:resource:resource-id\" DataType=\"http://www.w3.org/2001/XMLSchema#anyURI\">\r\n            <AttributeValue>CISCO:UC:VoiceOrVideoCall</AttributeValue>\r\n        </Attribute>\r\n    </Resource>\r\n    <Action>\r\n        <Attribute AttributeId=\"urn:oasis:names:tc:xacml:1.0:action:action-id\" DataType=\"http://www.w3.org/2001/XMLSchema#anyURI\">\r\n            <AttributeValue>any</AttributeValue>\r\n        </Attribute>\r\n    </Action>\r\n    <Environment>\r\n        <Attribute AttributeId=\"urn:Cisco:uc:1.0:triggerpointtype\" DataType=\"http://www.w3.org/2001/XMLSchema#string\">\r\n            <AttributeValue>translationpattern</AttributeValue>\r\n        </Attribute>\r\n    </Environment>\r\n    </Request>",
							"options": {
								"raw": {
									"language": "xml"
								}
							}
						},
						"url": {
							"raw": "http://{{flask_address}}:{{flask_port}}/ecc/request",
							"protocol": "http",
							"host": [
								"{{flask_address}}"
							],
							"port": "{{flask_port}}",
							"path": [
								"ecc",
								"request"
							]
						}
					},
					"response": []
				}
			]
		}
	]
}